Codon Usage - Che-Wei's Blog
…
之後我們按照這篇論文CAIcal: A combined set of tools to assess codon usage adaptation將FASTA進行CODON的統計，最後將網頁輸出的結果整理成表格後，在將該表格輸入進R，進行Tidy。注:CAIcal往網站掛掉了，以後可能要自己推算。

codon <- read_csv(file = "codon A46 3.csv") %>%
  #我們移除第一行，這行是編號，對我們幫助不大
  select(-X1)
#我們稍微來看一下資料結構
codon

## # A tibble: 61 x 5,966
##    CODONS Aminoacids PSDM_0001 PSDM_0002 PSDM_0003 PSDM_0004 PSDM_0005
##    <chr>  <chr>          <int>     <int>     <int>     <int>     <int>
##  1 TTT    F                  0         0         0         0         0
##  2 TTC    F                 29         3        39         6         6
##  3 TTA    L                  0         0         0         0         0
##  4 TTG    L                  1         4         2         5         0
##  5 CTT    L                  1         3         1         2         0
##  6 CTC    L                 14         3        26         3         0
##  7 CTA    L                  0         1         0         1         0
##  8 CTG    L                 33        16        60        13         2
##  9 ATT    I                  2         0         1         1         0
## 10 ATC    I                 30        14        25         4         2
## # ... with 51 more rows, and 5,959 more variables: PSDM_0006 <int>,
## #   PSDM_0007 <int>, PSDM_0008 <int>, PSDM_0009 <int>, PSDM_0010 <int>,
## #   PSDM_0011 <int>, PSDM_0012 <int>, PSDM_0013 <int>, PSDM_0014 <int>,
## #   PSDM_0015 <int>, PSDM_0016 <int>, PSDM_0017 <int>, PSDM_0018 <int>,
## #   PSDM_0019 <int>, PSDM_0020 <int>, PSDM_0021 <int>, PSDM_0022 <int>,
## #   PSDM_0023 <int>, PSDM_0024 <int>, PSDM_0025 <int>, PSDM_0026 <int>,
## #   PSDM_0027 <int>, PSDM_0028 <int>, PSDM_0029 <int>, PSDM_0030 <int>,
## #   PSDM_0031 <int>, PSDM_0032 <int>, PSDM_0033 <int>, PSDM_0034 <int>,
## #   PSDM_0035 <int>, PSDM_0036 <int>, PSDM_0037 <int>, PSDM_0038 <int>,
…
